{
    "count":3016,
    "next":"https://food2fork.ca/api/recipe/search/?page=2&query=donut+",
    "previous":null,
    "results":[
        {
            "pk":1,
            "title":"Cauldron&nbsp;Cakes - Home - Pastry Affair",
            "publisher":"blake",
            "featured_image":"https://nyc3.digitaloceanspaces.com/food2fork/food2fork-static/featured_images/1/featured_image.png",
            "rating":22,
            "source_url":"http://www.thepastryaffair.com/blog/2011/7/12/cauldron-cakes.html",
            "description":"N/A",
            "cooking_instructions":null,
            "ingredients":[
                "12",
                "cupcakes",
                "devil's food",
                "Chocolate Glaze",
                "Edible gold glitter",
                "4 tablespoons butter",
                "1 recipe for Chocolate Glaze (below)",
                "Approximately 1/2 cup chocolate chips",
                "1 recipe for Marshmallow Filling (below)",
                "6 ounces (1 cup) semi-sweet chocolate chips"
            ],
            "date_added":"November 11 2020",
            "date_updated":"November 11 2020",
            "long_date_added":1606348709,
            "long_date_updated":1606348709
        },
        {
            "pk":2,
            "title":"Banana Cream Pie Recipe",
            "publisher":"blake",
            "featured_image":"https://nyc3.digitaloceanspaces.com/food2fork/food2fork-static/featured_images/2/featured_image.png",
            "rating":34,
            "source_url":"http://www.aspicyperspective.com/2013/03/banana-cream-pie-recipe.html",
            "description":"N/A",
            "cooking_instructions":null,
            "ingredients":[
                "3 Tb. sugar",
                "1-2 Tb. water",
                "1/4 cup sugar",
                "Pinch of salt",
                "4-5 ripe bananas",
                "1/2 tsp. cinnamon",
                "6 Tb. melted butter",
                "For the Pie Filling",
                "1 tsp. vanilla extract",
                "1/2 cup toasted coconut",
                "1 cup cold California milk",
                "For the Graham Cracker Crust",
                "8 oz. California cream cheese",
                "14 oz. sweetened condensed milk",
                "14 whole graham crackers, about 7 oz.",
                "2 cup heavy cream, whipped and divided",
                "1 - 3.4 oz. box instant vanilla pudding"
            ],
            "date_added":"November 11 2020",
            "date_updated":"November 11 2020",
            "long_date_added":1606348709,
            "long_date_updated":1606348709
        },
        {
            "pk":3,
            "title":"Easy Crockpot Pulled Pork",
            "publisher":"mitch",
            "featured_image":"https://nyc3.digitaloceanspaces.com/food2fork/food2fork-static/featured_images/3/featured_image.png",
            "rating":13,
            "source_url":"http://www.mybakingaddiction.com/easy-crockpot-pulled-pork-recipe/",
            "description":"N/A",
            "cooking_instructions":null,
            "ingredients":[
                " cup cider vinegar",
                "1  teaspoons sugar",
                "1 tablespoon paprika",
                " teaspoon garlic salt",
                " teaspoons dry mustard",
                "2 teaspoon kosher salt",
                "2 tablespoons brown sugar",
                "4 teaspoons Worcestershire sauce",
                "1 large Vidalia onion, sliced thin",
                " teaspoon freshly ground black pepper",
                "1  teaspoons crushed red pepper flakes",
                "1 (4-6 lb) boneless pork butt or shoulder"
            ],
            "date_added":"November 11 2020",
            "date_updated":"November 11 2020",
            "long_date_added":1606348709,
            "long_date_updated":1606348709
        },
    ]
}
